ALX 022
BLR 021
BRD 021
BSN 021
CMN 004
CMY 021
CNL 021
DSM 021
FAN 021
GUL 021
IBK 022
JRI 021
KEN 022
KRN 021
LAR 023
NCL 021
NSH 021
RMK 022
RSD 021
RYU 023
URN 022
VEG 022
Z20 021
Z21 023
Z22 021
Z23 022
Z24 023
Z25 022
Z26 002
Z27 002
Z28 000
ZGF 021