ALX 041
BLR 041
BRD 041
BSN 041
CMN 004
CMY 041
CNL 041
DSM 041
FAN 041
GUL 041
IBK 041
JRI 041
KEN 041
KRN 041
LAR 041
NCL 041
NSH 041
RMK 041
RSD 041
RYU 041
URN 041
VEG 041
Z20 041
Z21 041
Z22 041
Z23 041
Z24 041
Z25 041
Z26 041
Z27 041
Z28 041
Z29 041
Z30 041
Z31 041
Z32 041
Z33 041
Z34 041
Z35 041
Z36 000
Z37 000
ZGF 041