ALX 061
BLR 061
BRD 060
BSN 060
CMN 005
CMY 060
CNL 061
DSM 061
FAN 060
GUL 060
IBK 061
JRI 061
KEN 061
KRN 060
LAR 060
NCL 061
NSH 061
RMK 060
RSD 060
RYU 060
URN 060
VEG 060
Z20 060
Z21 061
Z22 061
Z23 060
Z24 060
Z25 061
Z26 060
Z27 061
Z28 060
Z29 060
Z30 060
Z31 060
Z32 060
Z33 060
Z34 060
Z35 061
Z36 062
Z37 061
Z38 060
Z39 060
Z40 060
Z41 061
Z42 061
ZGF 061